{
	"build": "public",
	"routes": {
		"pages": ":filename",
		"locations":":filename/fencing-contractor",
		"reviews":":filename",
		"404": ":oops-page-not-found"
	},
	"entrypoint_js": ":fingerprint",
	"baseurl": "/",
	"local": {
		"port": 3000
	},
	"cms": {
		"repo": "https://gitlab.com/jamestagal/inspiredfencing",
		"redirect_url": "https://inspiredfencing.com.au/",
		"app_id": "1b82fb50862ad0d4c145b41fe68f0d510d1abd2963a482f20f26e65b370e97d3",
		"branch": "main"
	}
}