{
    "components": [
        {
            "name": "services_344_mod",
            "fields": {
                "subtitle": "Inspired Fencing across the Mornington Peninsula",
                "title": "Expert Fencing Solutions in Mornington Peninsula, VICTORIA",
                "description": "As one of the leading fencing contractors in Melbourne's bayside region, Inspired Fencing brings premium quality fencing installations and designs to residential and commercial properties across the Mornington Peninsula region and neighboring districts."
            }
        },
        {
            "name": "sbs_1456",
            "fields": {
                "imageGroup": {
                    "image1": {
                        "mobile": "media/images/location/MorningtonPeninsula.webp",
                        "desktop": "media/images/location/MorningtonPeninsula.webp",
                        "alt": "Mornington Peninsula",
                        "width": 701,
                        "height": 1070
                    },
                    "image2": {
                        "mobile": "media/images/gallery/image_10.webp",
                        "desktop": "media/images/gallery/image_10.webp",
                        "alt": "featured fence",
                        "width": 762,
                        "height": 800
                    }
                },
                "background": {
                    "mobile": "media/images/index/Feature_paling.webp",
                    "desktop": "media/images/index/Feature_paling.webp",
                    "alt": "featured fence",
                    "width": 1280,
                    "height": 568
                },
                "main_content": {
                    "topper": "Enhancing Peninsula Properties",
                    "title": "Your Trusted Fencing Specialists on the Mornington Peninsula",
                    "text": [
                        "Stretching along Port Phillip Bay's eastern coastline, the Mornington Peninsula's unique coastal environment and varied residential styles require specialized fencing solutions. Our skilled craftsmen are well-versed in the region's distinctive terrain and coastal conditions, delivering fencing solutions that not only protect against salt air exposure but also enhance the peninsula's prestigious properties while adhering to local council specifications.",
                        "Common fencing installed:"
                    ],
                    "listItems": [
                        "COLORBOND® Fencing",
                        "Timber Paling Fences",
                        "Security Fencing Solutions",
                        "Tubular and Pool Fencing",
                        "Chainwire Fencing"
                    ],
                    "button": {
                        "text": "Discover More",
                        "url": "services",
                        "ariaLabel": "Learn more about our services"
                    }
                }
            }
        },
        {
            "name": "sbsr_482",
            "fields": {
                "image": {
                    "mobile": "media/images/gallery/image_16.webp",
                    "desktop": "media/images/gallery/image_16.webp",
                    "alt": "featured fencing",
                    "width": 762,
                    "height": 800
                },
                "main_content": {
                    "topper": "",
                    "title": "Trusted Fencing Solutions for Home & Business",
                    "text": [
                        "Elevate your property with expert fencing installations across the Mornington Peninsula region. Whether you're seeking to enhance your beachside home with weather-resistant fencing or secure your commercial premises with durable barriers, our experienced team delivers tailored solutions designed to withstand the Peninsula's unique coastal conditions.",
                        "Drawing on extensive experience in the Mornington Peninsula's diverse landscapes, we excel in delivering a comprehensive selection of fencing solutions including salt-resistant Colorbond®, naturally beautiful timber, corrosion-resistant aluminum, and compliant pool fencing that meets strict local regulations. Our dedicated craftsmen collaborate closely with property owners to create the perfect balance of functionality and aesthetics, whether you're prioritizing coastal views, ensuring child safety, maximizing security, or boosting your commercial property's appeal.",
                        "Supporting residential and business clients throughout Mount Eliza, Mount Martha, Mornington, Safety Beach, and across the Peninsula, we're your local experts for all fencing requirements. Reach out today for a detailed, obligation-free consultation and see why we're the preferred fencing contractors for discerning Peninsula property owners."
                    ],
                    "button": {
                        "text": "Learn More",
                        "url": "about",
                        "ariaLabel": "Learn more about group training"
                    }
                }
            }
        },
        {
            "name": "ctar_482",
            "fields": {
                "cards": [
                    {
                        "number": "Residential Fences",
                        "title": "Secure Solutions for Your Home",
                        "text": "Enhance your home's security and privacy in Mornington Peninsula with our comprehensive residential fencing solutions. Our expert team delivers quality installations tailored to your property's needs.",
                        "link": {
                            "buttonText": "See More",
                            "linkText": "View Our Work",
                            "url": "projects",
                            "arrowIcon": {
                                "src": "media/svg/arrow-right-green.svg",
                                "alt": "arrow icon",
                                "width": 20,
                                "height": 20
                            }
                        },
                        "image": {
                            "mobile": "media/images/gallery/image_19.webp",
                            "desktop": "media/images/gallery/image_19.webp",
                            "alt": "residential fencing",
                            "width": 800,
                            "height": 600
                        }
                    },
                    {
                        "number": "Commercial Fences",
                        "title": "Protection for Your Business",
                        "text": "Protect your business assets in Mornington Peninsula with our industrial-grade commercial fencing. We provide robust, professional installations that ensure your property's security and professional appearance.",
                        "link": {
                            "buttonText": "See More",
                            "linkText": "View Our Work",
                            "url": "projects",
                            "arrowIcon": {
                                "src": "media/svg/arrow-right-green.svg",
                                "alt": "arrow icon",
                                "width": 20,
                                "height": 20
                            }
                        },
                        "image": {
                            "mobile": "media/images/location/commercialFencing.webp",
                            "desktop": "media/images/location/commercialFencing.webp",
                            "alt": "commercial fencing",
                            "width": 800,
                            "height": 534
                        }
                    }
                ]
            }
        },
        {
            "name": "sbs_1901",
            "fields": {
                "sections": [
                    {
                        "image": {
                            "mobile": "media/images/services/Colorbond_01.webp",
                            "desktop": "media/images/services/Colorbond_01.webp",
                            "alt": "people",
                            "width": 608,
                            "height": 406
                        },
                        "content": {
                            "topper": "Local Expertise in COLORBOND® Fencing",
                            "title": "Comprehensive Fencing Services in Frankston",
                            "text": [
                                "Engineered for Australia's harshest environments, our COLORBOND® fencing installations excel in the Mornington Peninsula's demanding coastal conditions. Our specialist team ensures precise installation techniques that account for the region's unique seaside environment, delivering superior protection against salt spray and maritime weather patterns.",
                                "Discover the perfect blend of style and durability with our COLORBOND® range, offering sophisticated color options that harmonize with the Peninsula's prestigious coastal architecture. Our premium steel fencing solutions feature advanced anti-corrosion technology and marine-grade coatings, specifically chosen to withstand the challenges of beachfront and bay-side properties across Mount Martha, Safety Beach, and surrounding areas.",
                                "Partner with our Peninsula-based experts for end-to-end COLORBOND® installations that consider local terrain and environmental factors. We conduct thorough site evaluations, implement appropriate drainage solutions, and ensure compliance with the Mornington Peninsula Shire Council regulations while maximizing your property's aesthetic appeal and security."
                            ],
                            "button": {
                                "text": "Contact Us",
                                "url": "contact",
                                "ariaLabel": "Enroll in fitness program"
                            }
                        }
                    },
                    {
                        "image": {
                            "mobile": "media/images/gallery/image_01.webp",
                            "desktop": "media/images/gallery/image_01.webp",
                            "alt": "people",
                            "width": 608,
                            "height": 406
                        },
                        "content": {
                            "topper": "Local Expertise in Timber Paling Fences",
                            "title": "Traditional Timber Paling Fences",
                            "text": [
                                "Our signature timber paling fences feature select-grade cypress pine or hardwood posts paired with premium treated pine components, designed to complement the Mornington Peninsula's diverse architectural styles. This timeless fencing solution remains highly sought-after throughout the region's established neighborhoods, from Mount Eliza to Mornington, delivering both natural charm and robust privacy protection.",
            
                                "We carefully select materials that withstand the Peninsula's unique microclimate, incorporating H4-treated posts with enhanced foundations, marine-grade fixings, and optimally spaced rails for superior structural stability. Our craftsmen pay meticulous attention to paling placement and consistency, creating refined boundaries that enhance your Peninsula property's coastal aesthetic.",
            
                                "Select from our extensive range of timber styles, from classic designs to contemporary interpretations that reflect your property's coastal character. We offer specialized treatments specifically formulated for maritime conditions to maximize longevity. Our comprehensive service spans from initial consultation through to final installation, including environmentally conscious disposal of old fencing materials, ensuring a seamless experience for Peninsula residents."
                            ],
                            "button": {
                                "text": "View Gallery",
                                "url": "gallery",
                                "ariaLabel": "Start your fitness journey"
                            }
                        }
                    }
                ]
            }
        },
        {
            "name": "process_687",
            "fields": {
                "topper": "Our Simple Process",
                "title": "How We Work",
                "text": "At Inspired Fencing, we've streamlined our process to ensure a smooth and efficient experience for all our Morington Peninsula clients. Here's how we work to deliver top-quality fencing services:",
                "background": {
                    "mobile": "media/images/index/Feature_paling.webp",
                    "desktop": "media/images/index/Feature_paling.webp",
                    "alt": "Paling fence side perspective",
                    "width": 1354,
                    "height": 555
                },
                "steps": [
                    {
                        "number": 1,
                        "icon": {
                            "src": "media/svg/Icons_phone-green.svg",
                            "alt": "heart icon",
                            "width": 42,
                            "height": 42
                        },
                        "title": "Give Us a Call",
                        "text": "Contact us at 0416 186 911 to discuss your fencing needs. We'll be happy to answer any questions and provide a free quote."
                    },
                    {
                        "number": 2,
                        "icon": {
                            "src": "media/svg/clipboard-fill.svg",
                            "alt": "toolbox icon",
                            "width": 42,
                            "height": 42
                        },
                        "title": "Free On-Site Quote",
                        "text": "We'll visit your property to assess the job and provide a detailed, no-obligation quote."
                    },
                    {
                        "number": 3,
                        "icon": {
                            "src": "media/svg/checkmark-green.svg",
                            "alt": "ribbon icon",
                            "width": 32,
                            "height": 42
                        },
                        "title": "Job Completion",
                        "text": "Once you're happy with the quote, we'll schedule and complete the work efficiently and to the highest standards."
                    }
                ]
            }
        },
        {
            "name": "why_choose_1571",
            "fields": {
                "topper": "Why Choose us",
                "title": "6 REASONS TO TRUST Mornington Peninsula's LEADING FENCE CONTRACTOR",
                "ownerProfile": {
                    "name": "Rowan Higgs",
                    "role": "Owner & Lead Contractor",
                    "image": {
                        "mobile": "media/images/location/maleTradie.jpg",
                        "desktop": "media/images/location/maleTradie.jpg",
                        "alt": "Company Owner",
                        "width": 400,
                        "height": 400
                    }
                },
                "backgroundImage": {
                    "mobile": "media/images/location/ecomm-why-choose-background.png",
                    "desktop": "media/images/location/ecomm-why-choose-background.png",
                    "alt": "texture",
                    "width": 1280,
                    "height": 568
                },
                "features": [
                    {
                        "title": "Safety First Approach",
                        "text": "Professional fencing contractors in Mornington Peninsula following strict safety protocols and full accreditation, ensuring risk-free fence installations.",
                        "icon": {
                            "src": "media/svg/bx-hard-hat.svg",
                            "alt": "delivery truck icon",
                            "width": 24,
                            "height": 24
                        }
                    },
                    {
                        "title": "Complete Privacy Solutions",
                        "text": "Expert privacy fence installation delivering the perfect balance of seclusion and style for Morington Peninsula homes and businesses.",
                        "icon": {
                            "src": "media/svg/padlock-check_14897075.svg",
                            "alt": "headphone icon",
                            "width": 24,
                            "height": 24
                        }
                    },
                    {
                        "title": "Enhanced Property Value",
                        "text": "Transform your property's appearance with premium fencing designs that boost curb appeal and increase your Mornington Peninsula property's market value.",
                        "icon": {
                            "src": "media/svg/bx-street-view.svg",
                            "alt": "money icon",
                            "width": 24,
                            "height": 24
                        }
                    },
                    {
                        "title": "Expert Installation Team",
                        "text": "Local Mornington Peninsula fencing specialists with over 15 years of experience, delivering superior fence installations for any property type.",
                        "icon": {
                            "src": "media/svg/expert-team_12454504.svg",
                            "alt": "label icon",
                            "width": 24,
                            "height": 24
                        }
                    },
                    {
                        "title": "Licensed & Insured",
                        "text": "Fully licensed Mornington Peninsula fencing contractors backed by comprehensive insurance coverage, guaranteeing quality workmanship that meets Australian standards.",
                        "icon": {
                            "src": "media/svg/trustworthiness_12454485.svg",
                            "alt": "shield icon",
                            "width": 24,
                            "height": 24
                        }
                    },
                    {
                        "title": "Competitive Pricing",
                        "text": "Transparent, value-driven fence installation quotes in Mornington Peninsula with no hidden costs, offering premium quality without breaking your budget.",
                        "icon": {
                            "src": "media/svg/bxs-calculator.svg",
                            "alt": "shopping bag icon",
                            "width": 24,
                            "height": 24
                        }
                    }
                ]
            }
        },
        {
            "name": "reviews_607",
            "fields": {
                "subtitle": "Testimonials",
                "title": "What Out customers are saying about our work",
                "description": "Don't just take our word for it. Here's what some of our satisfied customers have to say about Inspired Fencing services.",
                "button": {
                    "title": "Get a free quote",
                    "url": "contact"
                },
                 "sectionId": "add-padding"
            }
        }
    ],
    "meta": {
        "title": "Mornington Peninsula Fencing Contractor | Professional Fence Installation",
        "desc": "Expert fencing solutions in Mornington Peninsula & southeastern Melbourne. Specializing in Colorbond, timber paling, security & pool fencing. Licensed local contractors.",
        "keywords": "fencing contractors Mornington Peninsula, fence installation Mornington Peninsula, colorbond fencing Mornington Peninsula, local fence builder, security fencing Mornington Peninsula, pool fencing, paling fences melbourne, commercial fencing, fence builders"
    }
}