{
    "components": [
        {
            "name": "services_344_mod",
            "fields": {
                "subtitle": "Inspired Fencing in South Gippsland",
                "title": "Professional Fencing Services in South Gippsland, VICTORIA",
                "description": "As the leading fencing contractor serving South Gippsland's diverse landscape, Inspired Fencing delivers comprehensive fencing solutions for agricultural properties, tourism facilities, commercial sites, and residential areas throughout the region."
            }
        },
        {
            "name": "sbs_1456",
            "fields": {
                "imageGroup": {
                    "image1": {
                        "mobile": "media/images/location/BenaSunset.webp",
                        "desktop": "media/images/location/BenaSunset.webp",
                        "alt": "Bena Sunset South Gippsland",
                        "width": 717,
                        "height": 1001
                    },
                    "image2": {
                        "mobile": "media/images/gallery/image_21.webp",
                        "desktop": "media/images/gallery/image_21.webp",
                        "alt": "Featured paling fence", 
                        "width": 757,
                        "height": 664
                    }
                },
                "background": {
                    "mobile": "media/images/index/Feature_paling.webp",
                    "desktop": "media/images/index/Feature_paling.webp",
                    "alt": "turbine",
                    "width": 1280,
                    "height": 568
                },
                "main_content": {
                    "topper": "Serving South Gippsland's Varied Needs",
                    "title": "Your Complete Fencing Partner in South Gippsland",
                    "text": [
                        "Across South Gippsland's expansive rural landscape and vibrant tourism areas, diverse property types demand versatile fencing solutions. Our experienced team understands the unique requirements of farming operations, hospitality venues, and recreational facilities, delivering quality installations that enhance both function and aesthetics while meeting all local specifications.",
                        "Common fencing installed:"
                    ],
                    "listItems": [
                        "COLORBOND® Fencing",
                        "Timber Paling Fences",
                        "Security Fencing Solutions",
                        "Tubular and Pool Fencing",
                        "Chainwire Fencing"
                    ],
                    "button": {
                        "text": "Discover More",
                        "url": "services",
                        "ariaLabel": "Learn more about our services"
                    }
                }
            }
        },
        {
            "name": "sbsr_482",
            "fields": {
                "image": {
                    "mobile": "media/images/gallery/image_16.webp",
                    "desktop": "media/images/gallery/image_16.webp",
                    "alt": "featured fencing",
                    "width": 762,
                    "height": 800
                },
                "main_content": {
                    "topper": "",
                    "title": "Versatile Fencing Solutions for Every Sector",
                    "text": [
                        "Transform your property with professional fencing installations throughout South Gippsland. From securing expansive farming properties to enhancing tourism facilities and public recreational areas, our skilled team provides customized solutions that meet the diverse needs of this multifaceted region.",
                        "Drawing on extensive experience in South Gippsland's varied landscape, we excel in delivering comprehensive fencing solutions for agricultural, commercial, and residential properties. Our expert team works closely with property owners to ensure each installation perfectly matches their specific requirements, whether for farming operations, retail premises, or hospitality venues.",
                        "Supporting clients across South Gippsland's agricultural, tourism, and retail sectors, we're your trusted partner for all fencing needs. Contact us today for a detailed quote and discover why we're the preferred fencing contractors for South Gippsland's diverse community."
                    ],
                    "button": {
                        "text": "Learn More",
                        "url": "about",
                        "ariaLabel": "Learn more about our services"
                    }
                }
            }
        },
        {
            "name": "ctar_482",
            "fields": {
                "cards": [
                    {
                        "number": "Residential Fences",
                        "title": "Secure Solutions for Your Home",
                        "text": "Enhance your home's security and privacy in South Gippsland with our comprehensive residential fencing solutions. Our expert team delivers quality installations tailored to your property's needs.",
                        "link": {
                            "buttonText": "See More",
                            "linkText": "View Our Work",
                            "url": "projects",
                            "arrowIcon": {
                                "src": "media/svg/arrow-right-green.svg",
                                "alt": "arrow icon",
                                "width": 20,
                                "height": 20
                            }
                        },
                        "image": {
                            "mobile": "media/images/gallery/image_19.webp",
                            "desktop": "media/images/gallery/image_19.webp",
                            "alt": "residential fencing",
                            "width": 800,
                            "height": 600
                        }
                    },
                    {
                        "number": "Commercial Fences",
                        "title": "Protection for Your Business",
                        "text": "Protect your business assets in South Gippsland with our industrial-grade commercial fencing. We provide robust, professional installations that ensure your property's security and professional appearance.",
                        "link": {
                            "buttonText": "See More",
                            "linkText": "View Our Work",
                            "url": "projects",
                            "arrowIcon": {
                                "src": "media/svg/arrow-right-green.svg",
                                "alt": "arrow icon",
                                "width": 20,
                                "height": 20
                            }
                        },
                        "image": {
                            "mobile": "media/images/location/commercialFencing.webp",
                            "desktop": "media/images/location/commercialFencing.webp",
                            "alt": "commercial fencing",
                            "width": 800,
                            "height": 534
                        }
                    }
                ]
            }
        },
        {
            "name": "sbs_1901",
            "fields": {
                "sections": [
                    {
                        "image": {
                            "mobile": "media/images/services/Colorbond_01.webp",
                            "desktop": "media/images/services/Colorbond_01.webp",
                            "alt": "people",
                            "width": 608,
                            "height": 406
                        },
                        "content": {
                            "topper": "South Gippsland's COLORBOND® Experts",
                            "title": "Versatile Fencing for Multiple Applications",
                            "text": [
                                "Our COLORBOND® fencing installations provide ideal solutions for South Gippsland's diverse property needs. Our certified team ensures precise installations that complement both commercial premises and residential properties, delivering superior durability for the region's variable climate.",
                                "Experience the versatility of COLORBOND® steel fencing, featuring an extensive range of colors and styles suitable for retail, hospitality, and residential applications. Our fencing solutions combine aesthetic appeal with practical functionality, perfect for both business frontages and private properties.",
                                "Trust our South Gippsland experts for complete COLORBOND® installations that consider your specific requirements. We conduct thorough site evaluations, implement appropriate drainage solutions, and ensure compliance with local council regulations while maximizing your property's value and security."
                            ],
                            "button": {
                                "text": "Contact Us",
                                "url": "contact",
                                "ariaLabel": "Contact us about fencing"
                            }
                        }
                    },
                    {
                        "image": {
                            "mobile": "media/images/gallery/image_01.webp",
                            "desktop": "media/images/gallery/image_01.webp",
                            "alt": "people",
                            "width": 608,
                            "height": 406
                        },
                        "content": {
                            "topper": "Rural & Commercial Excellence",
                            "title": "Agricultural & Public Space Fencing",
                            "text": [
                                "Our comprehensive range of fencing solutions caters to South Gippsland's agricultural and public recreational needs. From robust farm fencing to specialized installations for public spaces and tourism facilities, we provide tailored solutions that match your specific requirements.",
                                "Each installation utilizes premium materials selected for durability and minimal maintenance. We implement proven construction techniques including secure post installations, quality fixtures, and appropriate spacing to ensure long-lasting performance across all applications.",
                                "Choose from our extensive selection of fencing styles, suitable for everything from farming operations to recreational facilities. We provide complete project management from initial consultation through to final installation, ensuring a seamless experience for all South Gippsland property owners."
                            ],
                            "button": {
                                "text": "View Gallery",
                                "url": "gallery",
                                "ariaLabel": "Start your fencing project"
                            }
                        }
                    }
                ]
            }
        },
        {
            "name": "process_687",
            "fields": {
                "topper": "Our Simple Process",
                "title": "How We Work",
                "text": "At Inspired Fencing, we've streamlined our process to ensure a smooth and efficient experience for all our South Gippsland clients. Here's how we work to deliver top-quality fencing services:",
                "background": {
                    "mobile": "media/images/index/Feature_paling.webp",
                    "desktop": "media/images/index/Feature_paling.webp",
                    "alt": "Paling fence side perspective",
                    "width": 1354,
                    "height": 555
                },
                "steps": [
                    {
                        "number": 1,
                        "icon": {
                            "src": "media/svg/Icons_phone-green.svg",
                            "alt": "heart icon",
                            "width": 42,
                            "height": 42
                        },
                        "title": "Give Us a Call",
                        "text": "Contact us at 0416 186 911 to discuss your fencing needs. We'll be happy to answer any questions and provide a free quote."
                    },
                    {
                        "number": 2,
                        "icon": {
                            "src": "media/svg/clipboard-fill.svg",
                            "alt": "toolbox icon",
                            "width": 42,
                            "height": 42
                        },
                        "title": "Free On-Site Quote",
                        "text": "We'll visit your property to assess the job and provide a detailed, no-obligation quote."
                    },
                    {
                        "number": 3,
                        "icon": {
                            "src": "media/svg/checkmark-green.svg",
                            "alt": "ribbon icon",
                            "width": 32,
                            "height": 42
                        },
                        "title": "Job Completion",
                        "text": "Once you're happy with the quote, we'll schedule and complete the work efficiently and to the highest standards."
                    }
                ]
            }
        },
        {
            "name": "why_choose_1571",
            "fields": {
                "topper": "Why Choose us",
                "title": "6 REASONS TO TRUST SOUTH GIPPSLAND'S LEADING FENCE CONTRACTOR",
                "ownerProfile": {
                    "name": "Rowan Higgs",
                    "role": "Owner & Lead Contractor",
                    "image": {
                        "mobile": "media/images/location/maleTradie.jpg",
                        "desktop": "media/images/location/maleTradie.jpg",
                        "alt": "Company Owner",
                        "width": 400,
                        "height": 400
                    }
                },
                "backgroundImage": {
                    "mobile": "media/images/location/ecomm-why-choose-background.png",
                    "desktop": "media/images/location/ecomm-why-choose-background.png",
                    "alt": "texture",
                    "width": 1280,
                    "height": 568
                },
                "features": [
                    {
                        "title": "Versatile Solutions",
                        "text": "Expert fencing contractors in South Gippsland providing solutions for agricultural, commercial, and recreational properties.",
                        "icon": {
                            "src": "/media/svg/bx-hard-hat.svg",
                            "alt": "hard hat icon",
                            "width": 24,
                            "height": 24
                        }
                    },
                    {
                        "title": "Industry Expertise",
                        "text": "Professional fence installations catering to South Gippsland's diverse sectors including farming, retail, and tourism.",
                        "icon": {
                            "src": "/media/svg/padlock-check_14897075.svg",
                            "alt": "padlock icon",
                            "width": 24,
                            "height": 24
                        }
                    },
                    {
                        "title": "Custom Solutions",
                        "text": "Tailored fencing designs that meet the specific needs of your property, whether for agriculture, business, or recreation.",
                        "icon": {
                            "src": "/media/svg/bx-street-view.svg",
                            "alt": "street view icon",
                            "width": 24,
                            "height": 24
                        }
                    },
                    {
                        "title": "Expert Installation Team",
                        "text": "Skilled South Gippsland fencing specialists experienced in all types of property installations.",
                        "icon": {
                            "src": "/media/svg/expert-team_12454504.svg",
                            "alt": "team icon",
                            "width": 24,
                            "height": 24
                        }
                    },
                    {
                        "title": "Licensed & Insured",
                        "text": "Fully licensed South Gippsland fencing contractors with comprehensive insurance coverage, guaranteeing quality workmanship.",
                        "icon": {
                            "src": "/media/svg/trustworthiness_12454485.svg",
                            "alt": "shield icon",
                            "width": 24,
                            "height": 24
                        }
                    },
                    {
                        "title": "Competitive Pricing",
                        "text": "Transparent, value-driven fence installation quotes in South Gippsland for projects of any scale.",
                        "icon": {
                            "src": "/media/svg/bxs-calculator.svg",
                            "alt": "calculator icon",
                            "width": 24,
                            "height": 24
                        }
                    }
                ]
            }
        },
        {
            "name": "reviews_607",
            "fields": {
                "subtitle": "Testimonials",
                "title": "What Out customers are saying about our work",
                "description": "Don't just take our word for it. Here's what some of our satisfied customers have to say about Inspired Fencing services.",
                "button": {
                    "title": "Get a free quote",
                    "url": "contact"
                },
                 "sectionId": "add-padding"
            }
        }
    ],
    "meta": {
        "title": "South Gippsland Fencing Contractor | Agricultural & Commercial Fence Installation",
        "desc": "Professional fencing solutions in South Gippsland. Specialists in agricultural, commercial, tourism & recreational fencing. Expert installations for farms, businesses & public spaces.",
        "keywords": "fencing contractors South Gippsland, rural fencing, agricultural fencing, forestry fencing, residential fencing South Gippsland, Dumbalk fencing, Sandy Point fencing, Venus Bay fencing, farm fencing, entry gates, driveway gates, Colorbond fencing"
    }
}