{
    "name": "services_1169",
    "fields": {
        "subtitle": "Our Projects",
        "title": "Featured Projects",
        "description": "Inspired Fencing offers a wide variety of fencing products to suit your style and environment. Read about some of our feeatured fence and gate jobs to see the quality products we use and our workmanship.",
        "project1": {
            "title": "Colorbond",
            "subtitle": "Delivering high-quality workmanship",
            "description": "We received a call from an existing client back in November 2018 who was in need of a secure...",
            "image_m": "media/images/projects/colorbond_01.webp",
            "image": "media/images/projects/colorbond_01.webp",
            "imageALT": "Colorbond fencing project"
        },
        "project2": {
            "title": "Brush fence",
            "subtitle": "Transforming a holiday home in Rye",
            "description": "In December 2018 we took on the challenge of a 40-metre brush fence at a holiday home...",
            "image_m": "media/images/projects/brush_01.webp",
            "image": "media/images/projects/brush_01.webp",
            "imageALT": "Brush fence project"
        },
        "project3": {
            "title": "Double gates",
            "subtitle": "A dream fence came true",
            "description": "Back in October 2018 we tackled a unique job in Rye. A Holiday home on a corner block was in desperate...",
            "image_m": "media/images/projects/driveway_01.webp",
            "image": "media/images/projects/driveway_01.webp",
            "imageALT": "Driveway double gates project"
        },
        "button": {
            "title": "Continue Reading",
            "url": "projects"
        }
    }
}