{
    "name": "sbs_317",
    "fields": {
        "subtitle": "FEATURED SERVICE",
        "title": "Expert Fencing Solutions for Homes in Greater Melbourne",
        "description": [
            {
                "paragraph": "When it comes to enhancing the aesthetic appeal and security of your home, nothing compares to the expertise of Inspired Fencing, your trusted partner in the fencing and gate business. We pride ourselves on being the go-to choice for homeowners seeking top-notch fencing solutions in the greater Melbourne area. Quality and value are not mere catchphrases for us; they are the fundamental principles guiding every installation we undertake."
            },
            {
                "paragraph": "As a leading name in the fencing industry, Inspired Fencing brings a perfect blend of craftsmanship and cost-effectiveness to meet all your fencing needs. Our comprehensive range of fencing and gate services caters to homes of all sizes, from cozy private residences to expansive estates throughout Melbourne and its surrounding areas. Whether you're looking to enhance the curb appeal of your home or fortify its security, our diverse and impeccable offerings are tailored to exceed your expectations."
            }
        ],
        "image_m": {
            "url": "media/images/index/Featured_Mosaic.webp",
            "alt": "Mosaic of fence"
        },
        "image": {
            "url": "media/images/index/Featured_Mosaic.webp",
            "alt": "Mosaic of fence",
            "width": "520",
            "height": "680"
        },
        "button": {
            "title": "Explore services",
            "url": "services"
        }
    }
}