{
    "name": "process_688",
    "fields": {
        "subtitle": "EXPERIENCE",
        "title": "WHY CHOOSE INSPIRED FENCING?",
        "description": "At Inspired Fencing, we understand that your home is your haven, and we are committed to providing fencing solutions that reflect both style and functionality. Our skilled professionals bring years of experience to every project, ensuring precision and reliability in every aspect of our work.",
        "cards": [
            {
                "title": "CUSTOMER EXPERIENCE",
                "blurb": "Our priority is making sure you have a seamless experience anfrom start to finish and you love your home's new fence or gate 100%.",
                "icon": {
                    "url": "media/svg/s5.svg",
                    "alt": "yellow quote icon"
                }
            },
            {
                "title": "100% SATISFACTION",
                "blurb": "We will guarantee you are satisfied with our work and see to it that all jobs are fininshed to the highest standard upon completion.",
                "icon": {
                    "url": "media/svg/s6.svg",
                    "alt": "yellow quote icon"
                }
            },
            {
                "title": "FAIR PRICING",
                "blurb": "We offer competitive prices for each job and are committed to avoiding overpricing or inflating costs, all while consistently delivering the highest quality workmanship.",
                "icon": {
                    "url": "media/svg/s7.svg",
                    "alt": "yellow quote icon"
                }
            },
            {
                "title": "FULLY QUALIFIED",
                "blurb": "As a fully licensed and qualified fencing contractor.  Opt for our services and rest easy, knowing you're in the hands of a highly qualified and seasoned professional.",
                "icon": {
                    "url": "media/svg/s8.svg",
                    "alt": "yellow quote icon"
                }
            }
        ],
        "image_m": {
            "url": "media/images/index/Paling.webp",
            "alt": "Paling fence side persective",
            "width": "360",
            "height": "480"
        },
        "image": {
            "url": "media/images/index/Feature_paling.webp",
            "alt": "Paling fence side persective",
            "width": "1354",
            "height": "555"
        }
    }
}