{
    "name": "reviews_Google",
    "fields": {
        "subtitle": "Testimonials",
        "title": "WHAT OUR CUSTOMERS HAVE TO SAY ABOUT OUR WORK",
        "description": "We don't just boast about our work; our clients place their trust in us. See for yourself what a few of our customers have shared about their interactions with Inspired Fencing.",
        "reviews": [
            {
                "description": "Rowan did a great job installing a new colourbond fence and set of gates on what was a difficult slope across a steep driveway. Very responsive, genuine value and someone I’d recommend for any fence installations.",
                "name": "Felicity Cumming"
            },
            {
                "description": "I'm very happy to recommend Rowan from Inspired Fencing. Rowan was nothing short of a Godsend!! Despite him having a busy schedule, he went out of his way to help me with building a safety fence that I needed done urgently. He is completely reliable, hard-working, and incredibly efficient. His knowledge is extensive and the quality and precision of his work is 10 out of 10!! A total professional and a nice guy too! 👍😊 Thanks so much Rowan. I'm truly grateful for your help!! Cheers, Trish",
                "name": "Trish Deason"
            },
            {
                "description": "I recently hired Rowan to put up a new fence and I am  very pleased with the job. Rowan was very thorough with the job even coming back afterwards for quality control and make sure I was satisfied. He communicated well with me when there was a delay in the start date due to issues with supply of materials. I can highly recommend him to anyone needing a fence. Thanks once again",
                "name": "Hilton Melder"
            },
            {
                "description": "Rowan is a very polite hard working tradie who doesnt mind hanging around to do the minor details to make the job complete. He is very easy to chat to and his attention to detail is amazing. Very happy with inspired fencings work highly recommend.",
                "name": "Aaron Slater"
            },
            {
                "description": "We chose this company based on many other locals recommending them for their quality and we are very happy with the fence they have constructed on our property and a very nice clean up also. Will use again.",
                "name": "Martyn Gittens"
            },
            {
                "description": "Couldn't be happier with the work, time spent and attention to detail. Rowan is friendly and approachable and was willing to go the extra mile with no hesitation.",
                "name": "Sheree Astuto"
            }
        ],
        "googleIcon": {
            "url": "media/svg/Google.webp",
            "alt": "Google icon"
        },
        "stars": {
            "url": "media/svg/stars.svg",
            "alt": "stars"
        },
        "button": {
            "title": "Read More Reviews",
            "url": "reviews"
        }
    }
}