<svg width="19" height="15" viewBox="0 0 19 15" fill="none" xmlns="http://www.w3.org/2000/svg">
<path d="M11.6765 14.2125C11.49 14.2125 11.3041 14.1437 11.1571 13.9966C11.0204 13.8582 10.9438 13.6714 10.9438 13.4769C10.9438 13.2824 11.0204 13.0957 11.1571 12.9572L16.5882 7.52604L11.1571 2.09486C11.0204 1.95639 10.9438 1.76968 10.9438 1.57516C10.9438 1.38063 11.0204 1.19393 11.1571 1.05545C11.2955 0.919013 11.4821 0.842529 11.6765 0.842529C11.8709 0.842529 12.0574 0.919013 12.1959 1.05545L18.1471 7.00663C18.2835 7.14508 18.36 7.33166 18.36 7.52604C18.36 7.72042 18.2835 7.907 18.1471 8.04545L12.1959 13.9966C12.0488 14.1437 11.8629 14.2125 11.6765 14.2125Z" fill="#FAFBFC"/>
<path d="M17.4606 8.26112H0.960575C0.766038 8.25958 0.579905 8.18162 0.442343 8.04405C0.304781 7.90649 0.226819 7.72036 0.225281 7.52582C0.225281 7.12406 0.55881 6.79053 0.960575 6.79053H17.4606C17.8629 6.79053 18.1959 7.12406 18.1959 7.52582C18.1943 7.72036 18.1164 7.90649 17.9788 8.04405C17.8412 8.18162 17.6551 8.25958 17.4606 8.26112V8.26112Z" fill="#FAFBFC"/>
</svg>
