<svg width="22" height="21" viewBox="0 0 22 21" fill="none" xmlns="http://www.w3.org/2000/svg">
<path d="M2.16665 11.8334H17.06L10.5533 18.34C10.0333 18.86 10.0333 19.7134 10.5533 20.2334C11.0733 20.7534 11.9133 20.7534 12.4333 20.2334L21.22 11.4467C21.74 10.9267 21.74 10.0867 21.22 9.56671L12.4466 0.766709C11.9266 0.246709 11.0866 0.246709 10.5666 0.766709C10.0466 1.28671 10.0466 2.12671 10.5666 2.64671L17.06 9.16671H2.16665C1.43331 9.16671 0.833313 9.76671 0.833313 10.5C0.833313 11.2334 1.43331 11.8334 2.16665 11.8334Z" fill="#44D543"/>
</svg>
