{
    "name": {
        "type": "text",
        "options": [
            "disabled"
        ]
    },
    "fields.button.url": {
        "type": "text",
        "options": [
            "disabled"
        ]
    }
}