{
	"components": [
		{
			"name": "hero_288",
			"fields": {
				"title1": "Trusted",
				"title2": "Fencing Contractor",
				"title3": "servicing greater Melbourne",
				"description": "Inspired Fencing provides a range of fencing solutions for the Mornington Peninsula, South East Melbourne & South Gippsland surrounds. We bring over 10 years of experience in the fencing industry to transform the outside of your home, building quality, secure and elegent fences & gates.",
				"image_m": {
					"url": "media/images/gallery/image_20.webp",
					"alt": "Paling fence"
				},
				"image": {
					"url": "media/images/gallery/image_20.webp",
					"alt": "Paling fence",
					"width": "800",
					"height": "1000"
				},
				"button": {
					"title": "Get a quote",
					"url": "contact"
				},
				"stat1": {
					"number": "9+",
					"desc": "Years Exp"
				},
				"stat2": {
					"number": "100's",
					"desc": "Happy Customers"
				},
				"stat3": {
					"number": "5/5",
					"desc": "Reviews"
				}
			}
		},
		{
			"name": "services_1175",
			"fields": {
				"title": "Residentail & Commercial Fencing",
				"subtitle": "OUR FENCING SERVICES",
				"description": "Inspired Fencing offers a comprehensive range of fencing services from homes and apartment complexes to commercial properties and office spaces that are backed by Inspired Fencing's steadfast commitment to excellence, quality, fair rates, and our 100% satisfaction guarantee.",
				"card1": {
					"title": "Design",
					"description": "Inspired Fencing specializes in crafting innovative and aesthetically pleasing designs for fences and gates, ensuring a perfect blend of functionality and style.",
					"icon": {
						"url": "media/svg/design-svgrepo-com.svg",
						"alt": "Design icon"
					}
				},
				"card2": {
					"title": "Install",
					"description": "With a foundation built on reliability and professionalism, Inspired Fencing excels in expertly installing high-quality fences and gates for homeowners on the Mornington Peninsula.",
					"icon": {
						"url": "media/svg/fence-free-material-svgrepo-com.svg",
						"alt": "Install icon"
					}
				},
				"card3": {
					"title": "Repair",
					"description": "Backed by years of experience and a commitment to honesty, Inspired Fencing offers efficient and trustworthy repair services, restoring the durability and appeal of existing fences and gates.",
					"icon": {
						"url": "media/svg/repair-tools-cross-svgrepo-com.svg",
						"alt": "Repair icon"
					}
				},
				"card4": {
					"title": "Replace",
					"description": "Inspired Fencing is ready to replace worn-out or outdated fences and gates with premium Australian-made products, providing homeowners with durable and stylish solutions.",
					"icon": {
						"url": "media/svg/replace-svgrepo-com.svg",
						"alt": "Replace icon"
					}
				},
				"button": {
					"title": "Explore services",
					"url": "services"
				}
			}
		},
		{
			"name": "sbs_317",
			"fields": {
				"subtitle": "FEATURED SERVICE",
				"title": "Expert Fencing Solutions for Homes in Greater Melbourne",
				"description": [
					{
						"paragraph": "When it comes to enhancing the aesthetic appeal and security of your home, nothing compares to the expertise of Inspired Fencing, your trusted partner in the fencing and gate business. We pride ourselves on being the go-to choice for homeowners seeking top-notch fencing solutions in the greater Melbourne area. Quality and value are not mere catchphrases for us; they are the fundamental principles guiding every installation we undertake."
					},
					{
						"paragraph": "As a leading name in the fencing industry, Inspired Fencing brings a perfect blend of craftsmanship and cost-effectiveness to meet all your fencing needs. Our comprehensive range of fencing and gate services caters to homes of all sizes, from cozy private residences to expansive estates throughout Melbourne and its surrounding areas. Whether you're looking to enhance the curb appeal of your home or fortify its security, our diverse and impeccable offerings are tailored to exceed your expectations."
					}
				],
				"image_m": {
					"url": "media/images/index/PalingFenceMosaic.webp",
					"alt": "Mosaic of fence"
				},
				"image": {
					"url": "media/images/index/PalingFenceMosaic.webp",
					"alt": "Mosaic of fence",
					"width": "520",
					"height": "680"
				},
				"button": {
					"title": "Explore services",
					"url": "services"
				}
			}
		},
		{
			"name": "process_688",
			"fields": {
				"subtitle": "EXPERIENCE",
				"title": "WHY CHOOSE INSPIRED FENCING?",
				"description": "At Inspired Fencing, we understand that your home is your haven, and we are committed to providing fencing solutions that reflect both style and functionality. Our skilled professionals bring years of experience to every project, ensuring precision and reliability in every aspect of our work.",
				"cards": [
					{
						"title": "CUSTOMER EXPERIENCE",
						"blurb": "Our priority is making sure you have a seamless experience anfrom start to finish and you love your home's new fence or gate 100%.",
						"icon": {
							"url": "media/svg/s5.svg",
							"alt": "yellow quote icon"
						}
					},
					{
						"title": "100% SATISFACTION",
						"blurb": "We will guarantee you are satisfied with our work and see to it that all jobs are fininshed to the highest standard upon completion.",
						"icon": {
							"url": "media/svg/s6.svg",
							"alt": "yellow quote icon"
						}
					},
					{
						"title": "FAIR PRICING",
						"blurb": "We offer competitive prices for each job and are committed to avoiding overpricing or inflating costs, all while consistently delivering the highest quality workmanship.",
						"icon": {
							"url": "media/svg/s7.svg",
							"alt": "yellow quote icon"
						}
					},
					{
						"title": "FULLY QUALIFIED",
						"blurb": "As a fully licensed and qualified fencing contractor.  Opt for our services and rest easy, knowing you're in the hands of a highly qualified and seasoned professional.",
						"icon": {
							"url": "media/svg/s8.svg",
							"alt": "yellow quote icon"
						}
					}
				],
				"image_m": {
					"url": "media/images/index/Paling.webp",
					"alt": "Paling fence side persective",
					"width": "360",
					"height": "480"
				},
				"image": {
					"url": "media/images/index/Feature_paling.webp",
					"alt": "Paling fence side persective",
					"width": "1354",
					"height": "555"
				}
			}
		},
		{
			"name": "services_1169",
			"fields": {
				"subtitle": "Our Projects",
				"title": "Featured Projects",
				"description": "Inspired Fencing offers a wide variety of fencing products to suit your style and environment. Read about some of our feeatured fence and gate jobs to see the quality products we use and our workmanship.",
				"project1": {
					"title": "Colorbond",
					"subtitle": "Delivering high-quality workmanship",
					"description": "We received a call from an existing client back in November 2018 who was in need of a secure...",
					"image_m": "media/images/projects/colorbond_01.webp",
					"image": "media/images/projects/colorbond_01.webp",
					"imageALT": "Colorbond fencing project"
				},
				"project2": {
					"title": "Brush fence",
					"subtitle": "Transforming a holiday home in Rye",
					"description": "In December 2018 we took on the challenge of a 40-metre brush fence at a holiday home...",
					"image_m": "media/images/projects/brush_01.webp",
					"image": "media/images/projects/brush_01.webp",
					"imageALT": "Brush fence project"
				},
				"project3": {
					"title": "Double gates",
					"subtitle": "A dream fence came true",
					"description": "Back in October 2018 we tackled a unique job in Rye. A Holiday home on a corner block was in desperate...",
					"image_m": "media/images/projects/driveway_01.webp",
					"image": "media/images/projects/driveway_01.webp",
					"imageALT": "Driveway double gates project"
				},
				"button": {
					"title": "Continue Reading",
					"url": "projects"
				}
			}
		},
		{
			"name": "sbsr_298",
			"fields": {
				"subtitle": "Who We Are",
				"title": "Local family business on the beautiful Mornington Peninsula",
				"description": [
					{
						"paragraph1": "Inspired Fencing is a family owned and operated fencing contractor built on workmanship, reliability, honesty, professionality & integrity. We are based in Somerville on Mornington Peninsula. Our customers love us because we offer them with high quality fencing and gate products at competitve rates. Our products and services are in fact proudly Australian ensuring customer satisfaction all the time.",
						"paragraph2": "We have years of experience in this industry and have great expertise as well as knowledge to help the homeowners make the best decision when it comes to selecting and building their fences & gates around their property. We can design, install, repair and even replace fences and gates for them. We keep up-to-date with the recent trends as well as innovations in fencing industry in order to be a step ahead in meeting the complex demands & changing environments."
					}
				],
				"box": {
					"number": "9+",
					"description": "years of experience"
				},
				"contact": {
					"text": "Call Rowan to ask any question:",
					"number": "0416 186 911"
				},
				"image": {
					"url": "media/images/index/Feature_TimberFence_02.webp",
					"alt": "Paling fence side persective"
				},
				"image_m": {
					"url": "media/images/index/Feature_TimberFence_02.webp",
					"alt": "Paling fence side persective"
				},
				"button": {
					"title": "Explore Services",
					"url": "services"
				}
			}
		},
		{
			"name": "reviews_Google",
			"fields": {
				"subtitle": "Testimonials",
				"title": "WHAT OUR CUSTOMERS HAVE TO SAY ABOUT OUR WORK",
				"description": "We don't just boast about our work; our clients place their trust in us. See for yourself what a few of our customers have shared about their interactions with Inspired Fencing.",
				"reviews": [
					{
						"description": "Rowan did a great job installing a new colourbond fence and set of gates on what was a difficult slope across a steep driveway. Very responsive, genuine value and someone I’d recommend for any fence installations.",
						"name": "Felicity Cumming"
					},
					{
						"description": "I'm very happy to recommend Rowan from Inspired Fencing. Rowan was nothing short of a Godsend!! Despite him having a busy schedule, he went out of his way to help me with building a safety fence that I needed done urgently. He is completely reliable, hard-working, and incredibly efficient. His knowledge is extensive and the quality and precision of his work is 10 out of 10!! A total professional and a nice guy too! 👍😊 Thanks so much Rowan. I'm truly grateful for your help!! Cheers, Trish",
						"name": "Trish Deason"
					},
					{
						"description": "I recently hired Rowan to put up a new fence and I am  very pleased with the job. Rowan was very thorough with the job even coming back afterwards for quality control and make sure I was satisfied. He communicated well with me when there was a delay in the start date due to issues with supply of materials. I can highly recommend him to anyone needing a fence. Thanks once again",
						"name": "Hilton Melder"
					},
					{
						"description": "Rowan is a very polite hard working tradie who doesnt mind hanging around to do the minor details to make the job complete. He is very easy to chat to and his attention to detail is amazing. Very happy with inspired fencings work highly recommend.",
						"name": "Aaron Slater"
					},
					{
						"description": "We chose this company based on many other locals recommending them for their quality and we are very happy with the fence they have constructed on our property and a very nice clean up also. Will use again.",
						"name": "Martyn Gittens"
					},
					{
						"description": "Couldn't be happier with the work, time spent and attention to detail. Rowan is friendly and approachable and was willing to go the extra mile with no hesitation.",
						"name": "Sheree Astuto"
					}
				],
				"googleIcon": {
					"url": "media/svg/Google.webp",
					"alt": "Google icon"
				},
				"stars": {
					"url": "media/svg/stars.svg",
					"alt": "stars"
				},
				"button": {
					"title": "Read More Reviews",
					"url": "reviews"
				},
				"sectionId": "add-padding"
			}
		},
		{
			"name": "cta_697",
			"fields": {
				"title": "Have Doubts? Get Your Queries Solved by Our Experts",
				"button": {
					"title": "Get In Touch",
					"url": "contact"
				},
				"waves": {
					"url": "media/svg/Images_Graphics_waves-3.svg",
					"alt": "white wavy pattern"
				}
			}
		},
		{
			"name": "contact_1392",
			"fields": {
				"subtitle": "CONTACT US",
				"title": "Get in Touch",
				"description": "We would love to hear about your project and we'd be happy to discuss your needs, provide a free consultation, and offer expert guidance to bring your vision to life. Contact us today and let us transform your home with our professional service. Alternatively fill the form on the right side to schedule a call or to set up a meeting at a convenient time.",
				"phone": {
					"title": "Phone",
					"number": "+61 416 186 911",
					"icon": "media/svg/Icons_phone-green.svg",
					"iconALT": "Green phone icon"
				},
				"email": {
					"title": "Email",
					"address": "info@inspiredfencing.com.au",
					"icon": "media/svg/Icons_mail-green.svg",
					"iconALT": "Green email icon"
				},
				"address": {
					"title": "Address",
					"location": "Frankston Flinders Rd, 3912 Somerville, Victoria, Australia",
					"icon": "media/svg/Icons_pin-green.svg",
					"iconALT": "Green location pin icon"
				},
				"form": {
					"title": "Enquire Now",
					"name": "Name",
					"email": "Email",
					"phone": "Phone",
					"message": "Message",
					"button": "Send Message"
				}
			}
		}
	],
	"meta": {
		"title": "Inspired Fencing | Fencing Expert in Mornington Peninsula & South East Melbourne",
		"desc": "Inspired Fencing is a family owned and operated fencing contractor building bespoke fence installations and repair services at affordable prices based in Somerville on Mornington Peninsula.",
		"keywords": "Fencing Expert, Fencing, Gates, Colorbond Fencing, Fence Repair, Fence Removal, Fence Contractors, Fence Replacement, Mornington Peninsula, Somerville"
	}
}