{
	"components": [
		{
			"name": "gallery_1446",
			"fields": {
				"title": "See our work in the Mornington Peninsula area",
				"subtitle": "Our Photo Gallery",
				"photos": [
					{
						"image_m": {
							"url": "media/images/gallery/image_01.webp",
							"alt": "paling fence unpainted"
						},
						"image": {
							"url": "media/images/gallery/image_01.webp",
							"alt": "paling fence unpainted",
							"width": "762",
							"height": "800"
						}
					},
					{
						"image_m": {
							"url": "media/images/gallery/image_02.webp",
							"alt": "paling fence unpainted"
						},
						"image": {
							"url": "media/images/gallery/image_02.webp",
							"alt": "paling fence unpainted",
							"width": "762",
							"height": "800"
						}
					},
					{
						"image_m": {
							"url": "media/images/gallery/image_03.webp",
							"alt": "paling fence unpainted"
						},
						"image": {
							"url": "media/images/gallery/image_03.webp",
							"alt": "paling fence unpainted",
							"width": "762",
							"height": "800"
						}
					},
					{
						"image_m": {
							"url": "media/images/gallery/image_04.webp",
							"alt": "paling fence unpainted"
						},
						"image": {
							"url": "media/images/gallery/image_04.webp",
							"alt": "paling fence unpainted",
							"width": "762",
							"height": "800"
						}
					},
					{
						"image_m": {
							"url": "media/images/gallery/image_05.webp",
							"alt": "paling fence unpainted"
						},
						"image": {
							"url": "media/images/gallery/image_05.webp",
							"alt": "paling fence unpainted",
							"width": "762",
							"height": "800"
						}
					},
					{
						"image_m": {
							"url": "media/images/gallery/image_06.webp",
							"alt": "paling fence unpainted"
						},
						"image": {
							"url": "media/images/gallery/image_06.webp",
							"alt": "paling fence unpainted",
							"width": "762",
							"height": "800"
						}
					},
					{
						"image_m": {
							"url": "media/images/gallery/image_07.webp",
							"alt": "paling fence unpainted"
						},
						"image": {
							"url": "media/images/gallery/image_07.webp",
							"alt": "paling fence unpainted",
							"width": "762",
							"height": "800"
						}
					},
					{
						"image_m": {
							"url": "media/images/gallery/image_08.webp",
							"alt": "paling fence unpainted"
						},
						"image": {
							"url": "media/images/gallery/image_08.webp",
							"alt": "paling fence unpainted",
							"width": "762",
							"height": "800"
						}
					},
					{
						"image_m": {
							"url": "media/images/gallery/image_09.webp",
							"alt": "paling fence unpainted"
						},
						"image": {
							"url": "media/images/gallery/image_09.webp",
							"alt": "paling fence unpainted",
							"width": "762",
							"height": "800"
						}
					},
					{
						"image_m": {
							"url": "media/images/gallery/image_10.webp",
							"alt": "paling fence unpainted"
						},
						"image": {
							"url": "media/images/gallery/image_10.webp",
							"alt": "paling fence unpainted",
							"width": "762",
							"height": "800"
						}
					},
					{
						"image_m": {
							"url": "media/images/gallery/image_11.webp",
							"alt": "paling fence unpainted"
						},
						"image": {
							"url": "media/images/gallery/image_11.webp",
							"alt": "paling fence unpainted",
							"width": "762",
							"height": "800"
						}
					},
					{
						"image_m": {
							"url": "media/images/gallery/image_12.webp",
							"alt": "paling fence unpainted"
						},
						"image": {
							"url": "media/images/gallery/image_12.webp",
							"alt": "paling fence unpainted",
							"width": "762",
							"height": "800"
						}
					},
					{
						"image_m": {
							"url": "media/images/gallery/image_13.webp",
							"alt": "paling fence unpainted"
						},
						"image": {
							"url": "media/images/gallery/image_13.webp",
							"alt": "paling fence unpainted",
							"width": "762",
							"height": "800"
						}
					},
					{
						"image_m": {
							"url": "media/images/gallery/image_14.webp",
							"alt": "paling fence unpainted"
						},
						"image": {
							"url": "media/images/gallery/image_14.webp",
							"alt": "paling fence unpainted",
							"width": "762",
							"height": "800"
						}
					},
					{
						"image_m": {
							"url": "media/images/gallery/image_15.webp",
							"alt": "paling fence unpainted"
						},
						"image": {
							"url": "media/images/gallery/image_15.webp",
							"alt": "paling fence unpainted",
							"width": "762",
							"height": "800"
						}
					},
					{
						"image_m": {
							"url": "media/images/gallery/image_16.webp",
							"alt": "paling fence unpainted"
						},
						"image": {
							"url": "media/images/gallery/image_16.webp",
							"alt": "paling fence unpainted",
							"width": "762",
							"height": "800"
						}
					},
					{
                        "image_m": {
                            "url": "media/images/gallery/image_18.webp",
                            "alt": "paling fence unpainted"
                        },
                        "image": {
                            "url": "media/images/gallery/image_18.webp",
                            "alt": "paling fence and gate unpainted",
                            "width": "768",
                            "height": "1024"
                        }
                    },
                    {
                        "image_m": {
                            "url": "media/images/gallery/image_20.webp",
                            "alt": "paling fence unpainted"
                        },
                        "image": {
                            "url": "media/images/gallery/image_20.webp",
                            "alt": "paling fence unpainted",
                            "width": "640",
                            "height": "628"
                        }
                    },
                    {
                        "image_m": {
                            "url": "media/images/gallery/image_21.webp",
                            "alt": "paling fence unpainted"
                        },
                        "image": {
                            "url": "media/images/gallery/image_21.webp",
                            "alt": "paling fence unpainted",
                            "width": "757",
                            "height": "664"
                        }
                    },
                    {
                        "image_m": {
                            "url": "media/images/gallery/image_22.webp",
                            "alt": "paling fence unpainted"
                        },
                        "image": {
                            "url": "media/images/gallery/image_22.webp",
                            "alt": "paling fence unpainted",
                            "width": "800",
                            "height": "789"
                        }
                    },
                    {
                        "image_m": {
                            "url": "media/images/gallery/image_24.webp",
                            "alt": "paling fence unpainted"
                        },
                        "image": {
                            "url": "media/images/gallery/image_24.webp",
                            "alt": "paling fence unpainted",
                            "width": "600",
                            "height": "450"
                        }
                    },
                    {
                        "image_m": {
                            "url": "media/images/gallery/image_27.webp",
                            "alt": "paling fence unpainted"
                        },
                        "image": {
                            "url": "media/images/gallery/image_27.webp",
                            "alt": "paling fence unpainted",
                            "width": "600",
                            "height": "800"
                        }
                    }
				]
			}
		},
		{
			"name": "cta_262",
			"fields": {
				"banner": {
					"title": "Get in touch for a quote",
					"hours": "Available Hours",
					"days": "Monday - Friday: 8am-6pm",
					"comment": "Appointments Preferred",
					"button": {
						"title": "Request a quote",
						"url": "contact"
					}
				},
				"picture": {
					"image_m": {
						"src": "media/images/gallery/Feature_Colourbond.webp"
					},
					"image_t": {
						"src": "media/images/gallery/Feature_Colourbond.webp"
					},
					"image": {
						"url": "media/images/gallery/Feature_Colourbond.webp",
						"alt": "Colorbond featured fence"
					}
				}
			}
		}
	],
	"meta": {
		"title": "Fence & Gate Gallery | Inspired Fencing Mornington Peninsula",
		"desc": "View our portfolio of custom fences and gates installed across the Mornington Peninsula. Browse completed projects showcasing our quality workmanship and design expertise.",
		"keywords": "fence gallery Mornington Peninsula, gate installations portfolio, fence examples, colorbond fence gallery, timber fence photos, custom gate designs, local fencing projects"
	  }
}