{
    "name": {
        "type": "text",
        "options": [
            "disabled"
        ]
    },
    "fields.button.url": {
        "type": "text",
        "options": [
            "disabled"
        ]
    },
    "fields.description.paragraph1": {
        "type": "wysiwyg",
        "options": [
            "all"
        ]
      },
      "fields.description.paragraph2": {
        "type": "wysiwyg",
        "options": [
            "all"
        ]
      }
}